Сума/Период;15;17;20;26;31;36
2000;0,0232;0,0162;0,0178;0,0132;;
2300;0,0249;0,0180;0,0193;0,0272;0,0145;0,0111
2500;0,0215;0,0201;0,0180;0,0200;0,0175;0,0131
2800;0,0239;0,0201;0,0193;0,0154;0,0155;0,0150
3000;0,0223;0,0207;0,0182;0,0155;0,0169;0,0143
3300;0,0227;0,0201;0,0176;0,0135;0,0151;0,0131
3500;0,0223;0,0201;0,0199;0,0168;0,0159;0,0136
4000;0,0217;0,0201;0,0190;0,0159;0,0132;0,0142
4500;0,0223;0,0206;0,0192;0,0154;0,0133;0,0145
5000;0,0223;0,0201;0,0178;0,0161;0,0137;0,0134
5500;0,0223;0,0190;0,0188;0,0163;0,0137;0,0136
6000;0,0219;0,0196;0,0184;0,0155;0,0149;0,0133
6500;0,0223;0,0201;0,0181;0,0141;0,0170;0,0136
7000;0,0223;0,0201;0,0193;0,0151;0,0144;0,0136
7500;0,0221;0,0201;0,0190;0,0155;0,0148;0,0134
8000;0,0223;0,0202;0,0211;0,0153;0,0126;0,0139
8500;0,0224;0,0201;0,0188;0,0156;0,0146;0,0136
9000;0,0223;0,0201;0,0188;0,0153;0,0149;0,0127
9500;0,0227;0,0201;0,0188;0,0155;0,0146;0,0133
10000;0,0223;0,0200;0,0195;0,0162;0,0149;0,0140
10500;0,0220;0,0202;0,0188;0,0162;0,0141;0,0136
11000;0,0221;0,0204;0,0189;0,0155;0,0146;0,0139
11500;0,0221;0,0203;0,0190;0,0155;0,0143;0,0133
12000;0,0224;0,0203;0,0190;0,0155;0,0145;0,0128
12500;0,0223;0,0203;0,0186;0,0158;0,0146;0,0135
13000;0,0223;0,0204;0,0186;0,0156;0,0143;0,0130
13500;0,0223;0,0202;0,0191;0,0159;0,0142;0,0133
14000;0,0223;0,0206;0,0191;0,0149;0,0146;0,0134
14500;0,0224;0,0204;0,0178;0,0155;0,0146;0,0136
15000;0,0223;0,0201;0,0190;0,0154;0,0145;0,0136
16000;0,0212;0,0199;0,0188;0,0148;0,0148;0,0115
17000;0,0223;0,0200;0,0188;0,0154;0,0150;0,0137
18000;0,0221;0,0200;0,0186;0,0154;0,0147;0,0146
19000;0,0222;0,0222;0,0186;0,0154;0,0145;0,0136
20000;0,0223;0,0201;0,0170;0,0155;0,0145;0,0131
21000;0,0224;0,0200;0,0186;0,0155;0,0147;0,0133
22000;0,0223;0,0202;0,0186;0,0152;0,0147;0,0134
23000;0,0224;0,0202;0,0188;0,0153;0,0145;0,0135
24000;0,0222;0,0201;0,0188;0,0155;0,0146;0,0137
25000;0,0223;0,0201;0,0188;0,0156;0,0147;0,0136
26000;0,0222;0,0201;0,0187;0,0155;0,0143;0,0136
27000;0,0224;0,0201;0,0188;0,0154;0,0145;0,0134
28000;0,0222;0,0201;0,0190;0,0154;0,0146;0,0134
29000;0,0223;0,0201;0,0185;0,0155;0,0145;0,0136
30000;0,0223;0,0201;0,0187;0,0155;0,0146;0,0136
31000;0,0222;0,0203;0,0188;0,0154;0,0146;0,0137
32000;0,0223;0,0202;0,0186;0,0156;0,0147;0,0136
33000;0,0224;0,0201;0,0186;0,0154;0,0147;0,0135
34000;0,0223;0,0201;0,0187;0,0155;0,0157;0,0137
35000;0,0222;0,0202;0,0188;0,0153;0,0145;0,0136
36000;0,0223;0,0201;0,0188;0,0155;0,0145;0,0135
37000;0,0222;0,0203;0,0189;0,0154;0,0145;0,0136
38000;0,0223;0,0201;0,0188;0,0154;0,0146;0,0135
39000;0,0223;0,0200;0,0189;0,0153;0,0146;0,0135
40000;0,0223;0,0202;0,0188;0,0154;0,0146;0,0137
41000;0,0223;0,0201;0,0188;0,0156;0,0146;0,0127
42000;0,0223;0,0201;0,0188;0,0155;0,0145;0,0136
43000;0,0223;0,0202;0,0189;0,0154;0,0145;0,0135
44000;0,0223;0,0201;0,0188;0,0154;0,0146;0,0135
45000;0,0222;0,0201;0,0188;0,0155;0,0145;0,0136
46000;0,0223;0,0202;0,0186;0,0156;0,0143;0,0136
47000;0,0223;0,0201;0,0187;0,0155;0,0146;0,0134
48000;0,0222;0,0202;0,0187;0,0155;0,0146;0,0136
49000;0,0222;0,0201;0,0187;0,0154;0,0145;0,0136
50000;0,0222;0,0201;0,0188;0,0155;0,0145;0,0134