Сума/Период;15;17;20;26;31;36
2000;4,9573;4,5368;4,0405;3,7468;;
2300;4,9965;4,5744;4,0749;3,7721;3,4691;3,3006
2500;4,9584;4,5346;4,0404;3,7446;3,4482;3,2753
2800;4,9899;4,5663;4,0686;3,7707;3,4652;3,2954
3000;4,9579;4,5342;4,0403;3,7461;3,4483;3,2751
3300;4,9857;4,5615;4,0650;3,7676;3,4628;3,2927
3500;4,9579;4,5346;4,0396;3,7456;3,4486;3,2752
4000;4,9583;4,5346;4,0400;3,7459;3,4492;3,2751
4500;4,9579;4,5343;4,0399;3,7461;3,4492;3,2751
5000;4,9579;4,5346;4,0405;3,7459;3,4491;3,2753
5500;4,9579;4,5352;4,0401;3,7458;3,4491;3,2752
6000;4,9582;4,5349;4,0402;3,7461;3,4488;3,2753
6500;4,9579;4,5346;4,0404;3,7466;3,4483;3,2752
7000;4,9579;4,5346;4,0398;3,7462;3,4489;3,2752
7500;4,9581;4,5346;4,0399;3,7461;3,4488;3,2753
8000;4,9579;4,5345;4,0390;3,7461;3,4494;3,2752
8500;4,9578;4,5346;4,0401;3,7460;3,4489;3,2752
9000;4,9579;4,5346;4,0401;3,7461;3,4488;3,2754
9500;4,9577;4,5346;4,0401;3,7461;3,4489;3,2753
10000;4,9579;4,5346;4,0397;3,7459;3,4488;3,2751
10500;4,9581;4,5345;4,0401;3,7458;3,4490;3,2752
11000;4,9581;4,5344;4,0400;3,7461;3,4489;3,2752
11500;4,9580;4,5345;4,0400;3,7461;3,4489;3,2753
12000;4,9578;4,5345;4,0400;3,7461;3,4489;3,2754
12500;4,9579;4,5345;4,0401;3,7460;3,4489;3,2752
13000;4,9579;4,5344;4,0401;3,7460;3,4489;3,2753
13500;4,9579;4,5345;4,0399;3,7460;3,4490;3,2753
14000;4,9579;4,5343;4,0399;3,7463;3,4489;3,2753
14500;4,9578;4,5344;4,0405;3,7461;3,4489;3,2752
15000;4,9579;4,5346;4,0400;3,7461;3,4489;3,2752
16000;4,9586;4,5347;4,0401;3,7463;3,4488;3,2756
17000;4,9579;4,5346;4,0401;3,7461;3,4488;3,2752
18000;4,9580;4,5346;4,0402;3,7461;3,4488;3,2750
19000;4,9580;4,5334;4,0401;3,7461;3,4489;3,2752
20000;4,9579;4,5346;4,0409;3,7461;3,4489;3,2753
21000;4,9579;4,5346;4,0401;3,7461;3,4488;3,2753
22000;4,9579;4,5346;4,0402;3,7462;3,4488;3,2753
23000;4,9579;4,5345;4,0401;3,7461;3,4489;3,2752
24000;4,9580;4,5346;4,0400;3,7461;3,4489;3,2752
25000;4,9579;4,5346;4,0401;3,7460;3,4489;3,2752
26000;4,9580;4,5346;4,0401;3,7461;3,4489;3,2752
27000;4,9578;4,5346;4,0401;3,7461;3,4489;3,2753
28000;4,9580;4,5346;4,0400;3,7461;3,4489;3,2752
29000;4,9579;4,5346;4,0402;3,7461;3,4489;3,2752
30000;4,9579;4,5346;4,0401;3,7461;3,4489;3,2752
31000;4,9580;4,5345;4,0401;3,7461;3,4489;3,2752
32000;4,9579;4,5346;4,0401;3,7460;3,4489;3,2752
33000;4,9579;4,5346;4,0401;3,7461;3,4488;3,2752
34000;4,9579;4,5346;4,0401;3,7461;3,4486;3,2752
35000;4,9580;4,5345;4,0401;3,7461;3,4489;3,2752
36000;4,9579;4,5346;4,0400;3,7461;3,4489;3,2752
37000;4,9580;4,5345;4,0400;3,7461;3,4489;3,2752
38000;4,9579;4,5346;4,0401;3,7461;3,4489;3,2752
39000;4,9579;4,5346;4,0400;3,7461;3,4489;3,2752
40000;4,9579;4,5345;4,0400;3,7461;3,4489;3,2752
41000;4,9579;4,5346;4,0400;3,7461;3,4489;3,2754
42000;4,9579;4,5346;4,0400;3,7461;3,4489;3,2752
43000;4,9579;4,5345;4,0400;3,7461;3,4489;3,2752
44000;4,9579;4,5346;4,0401;3,7461;3,4489;3,2752
45000;4,9580;4,5346;4,0401;3,7461;3,4489;3,2752
46000;4,9579;4,5345;4,0401;3,7460;3,4489;3,2752
47000;4,9579;4,5346;4,0401;3,7461;3,4489;3,2752
48000;4,9580;4,5345;4,0401;3,7461;3,4489;3,2752
49000;4,9580;4,5346;4,0401;3,7461;3,4489;3,2752
50000;4,9580;4,5346;4,0401;3,7461;3,4489;3,2752