Сума/Период;15;17;20;26;31;36
2000;208,00;188,00;168,00;148,00;;
2300;240,00;217,00;194,00;171,00;157,00;148,00
2500;260,00;235,00;210,00;185,00;170,00;160,00
2800;292,00;264,00;236,00;208,00;191,00;180,00
3000;312,00;282,00;252,00;222,00;204,00;192,00
3300;344,00;311,00;278,00;245,00;225,00;212,00
3500;364,00;329,00;294,00;259,00;238,00;224,00
4000;416,00;376,00;336,00;296,00;272,00;256,00
4500;468,00;423,00;378,00;333,00;306,00;288,00
5000;520,00;470,00;420,00;370,00;340,00;320,00
5500;572,00;517,00;462,00;407,00;374,00;352,00
6000;624,00;564,00;504,00;444,00;408,00;384,00
6500;676,00;611,00;546,00;481,00;442,00;416,00
7000;728,00;658,00;588,00;518,00;476,00;448,00
7500;780,00;705,00;630,00;555,00;510,00;480,00
8000;832,00;752,00;672,00;592,00;544,00;512,00
8500;884,00;799,00;714,00;629,00;578,00;544,00
9000;936,00;846,00;756,00;666,00;612,00;576,00
9500;988,00;893,00;798,00;703,00;646,00;608,00
10000;1040,00;940,00;840,00;740,00;680,00;640,00
10500;1092,00;987,00;882,00;777,00;714,00;672,00
11000;1144,00;1034,00;924,00;814,00;748,00;704,00
11500;1196,00;1081,00;966,00;851,00;782,00;736,00
12000;1248,00;1128,00;1008,00;888,00;816,00;768,00
12500;1300,00;1175,00;1050,00;925,00;850,00;800,00
13000;1352,00;1222,00;1092,00;962,00;884,00;832,00
13500;1404,00;1269,00;1134,00;999,00;918,00;864,00
14000;1456,00;1316,00;1176,00;1036,00;952,00;896,00
14500;1508,00;1363,00;1218,00;1073,00;986,00;928,00
15000;1560,00;1410,00;1260,00;1110,00;1020,00;960,00
16000;1664,00;1504,00;1344,00;1184,00;1088,00;1024,00
17000;1768,00;1598,00;1428,00;1258,00;1156,00;1088,00
18000;1872,00;1692,00;1512,00;1332,00;1224,00;1152,00
19000;1976,00;1786,00;1596,00;1406,00;1292,00;1216,00
20000;2080,00;1880,00;1680,00;1480,00;1360,00;1280,00
21000;2184,00;1974,00;1764,00;1554,00;1428,00;1344,00
22000;2288,00;2068,00;1848,00;1628,00;1496,00;1408,00
23000;2392,00;2162,00;1932,00;1702,00;1564,00;1472,00
24000;2496,00;2256,00;2016,00;1776,00;1632,00;1536,00
25000;2600,00;2350,00;2100,00;1850,00;1700,00;1600,00
26000;2704,00;2444,00;2184,00;1924,00;1768,00;1664,00
27000;2808,00;2538,00;2268,00;1998,00;1836,00;1728,00
28000;2912,00;2632,00;2352,00;2072,00;1904,00;1792,00
29000;3016,00;2726,00;2436,00;2146,00;1972,00;1856,00
30000;3120,00;2820,00;2520,00;2220,00;2040,00;1920,00
31000;3224,00;2914,00;2604,00;2294,00;2108,00;1984,00
32000;3328,00;3008,00;2688,00;2368,00;2176,00;2048,00
33000;3432,00;3102,00;2772,00;2442,00;2244,00;2112,00
34000;3536,00;3196,00;2856,00;2516,00;2312,00;2176,00
35000;3640,00;3290,00;2940,00;2590,00;2380,00;2240,00
36000;3744,00;3384,00;3024,00;2664,00;2448,00;2304,00
37000;3848,00;3478,00;3108,00;2738,00;2516,00;2368,00
38000;3952,00;3572,00;3192,00;2812,00;2584,00;2432,00
39000;4056,00;3666,00;3276,00;2886,00;2652,00;2496,00
40000;4160,00;3760,00;3360,00;2960,00;2720,00;2560,00
41000;4264,00;3854,00;3444,00;3034,00;2788,00;2624,00
42000;4368,00;3948,00;3528,00;3108,00;2856,00;2688,00
43000;4472,00;4042,00;3612,00;3182,00;2924,00;2752,00
44000;4576,00;4136,00;3696,00;3256,00;2992,00;2816,00
45000;4680,00;4230,00;3780,00;3330,00;3060,00;2880,00
46000;4784,00;4324,00;3864,00;3404,00;3128,00;2944,00
47000;4888,00;4418,00;3948,00;3478,00;3196,00;3008,00
48000;4992,00;4512,00;4032,00;3552,00;3264,00;3072,00
49000;5096,00;4606,00;4116,00;3626,00;3332,00;3136,00
50000;5200,00;4700,00;4200,00;3700,00;3400,00;3200,00