Сума/Период;15;17;20;26;31;36
2000;3120,00;3196,00;3360,00;3848,00;;
2300;3600,00;3689,00;3880,00;4446,00;4867,00;5328,00
2500;3900,00;3995,00;4200,00;4810,00;5270,00;5760,00
2800;4380,00;4488,00;4720,00;5408,00;5921,00;6480,00
3000;4680,00;4794,00;5040,00;5772,00;6324,00;6912,00
3300;5160,00;5287,00;5560,00;6370,00;6975,00;7632,00
3500;5460,00;5593,00;5880,00;6734,00;7378,00;8064,00
4000;6240,00;6392,00;6720,00;7696,00;8432,00;9216,00
4500;7020,00;7191,00;7560,00;8658,00;9486,00;10368,00
5000;7800,00;7990,00;8400,00;9620,00;10540,00;11520,00
5500;8580,00;8789,00;9240,00;10582,00;11594,00;12672,00
6000;9360,00;9588,00;10080,00;11544,00;12648,00;13824,00
6500;10140,00;10387,00;10920,00;12506,00;13702,00;14976,00
7000;10920,00;11186,00;11760,00;13468,00;14756,00;16128,00
7500;11700,00;11985,00;12600,00;14430,00;15810,00;17280,00
8000;12480,00;12784,00;13440,00;15392,00;16864,00;18432,00
8500;13260,00;13583,00;14280,00;16354,00;17918,00;19584,00
9000;14040,00;14382,00;15120,00;17316,00;18972,00;20736,00
9500;14820,00;15181,00;15960,00;18278,00;20026,00;21888,00
10000;15600,00;15980,00;16800,00;19240,00;21080,00;23040,00
10500;16380,00;16779,00;17640,00;20202,00;22134,00;24192,00
11000;17160,00;17578,00;18480,00;21164,00;23188,00;25344,00
11500;17940,00;18377,00;19320,00;22126,00;24242,00;26496,00
12000;18720,00;19176,00;20160,00;23088,00;25296,00;27648,00
12500;19500,00;19975,00;21000,00;24050,00;26350,00;28800,00
13000;20280,00;20774,00;21840,00;25012,00;27404,00;29952,00
13500;21060,00;21573,00;22680,00;25974,00;28458,00;31104,00
14000;21840,00;22372,00;23520,00;26936,00;29512,00;32256,00
14500;22620,00;23171,00;24360,00;27898,00;30566,00;33408,00
15000;23400,00;23970,00;25200,00;28860,00;31620,00;34560,00
16000;24960,00;25568,00;26880,00;30784,00;33728,00;36864,00
17000;26520,00;27166,00;28560,00;32708,00;35836,00;39168,00
18000;28080,00;28764,00;30240,00;34632,00;37944,00;41472,00
19000;29640,00;30362,00;31920,00;36556,00;40052,00;43776,00
20000;31200,00;31960,00;33600,00;38480,00;42160,00;46080,00
21000;32760,00;33558,00;35280,00;40404,00;44268,00;48384,00
22000;34320,00;35156,00;36960,00;42328,00;46376,00;50688,00
23000;35880,00;36754,00;38640,00;44252,00;48484,00;52992,00
24000;37440,00;38352,00;40320,00;46176,00;50592,00;55296,00
25000;39000,00;39950,00;42000,00;48100,00;52700,00;57600,00
26000;40560,00;41548,00;43680,00;50024,00;54808,00;59904,00
27000;42120,00;43146,00;45360,00;51948,00;56916,00;62208,00
28000;43680,00;44744,00;47040,00;53872,00;59024,00;64512,00
29000;45240,00;46342,00;48720,00;55796,00;61132,00;66816,00
30000;46800,00;47940,00;50400,00;57720,00;63240,00;69120,00
31000;48360,00;49538,00;52080,00;59644,00;65348,00;71424,00
32000;49920,00;51136,00;53760,00;61568,00;67456,00;73728,00
33000;51480,00;52734,00;55440,00;63492,00;69564,00;76032,00
34000;53040,00;54332,00;57120,00;65416,00;71672,00;78336,00
35000;54600,00;55930,00;58800,00;67340,00;73780,00;80640,00
36000;56160,00;57528,00;60480,00;69264,00;75888,00;82944,00
37000;57720,00;59126,00;62160,00;71188,00;77996,00;85248,00
38000;59280,00;60724,00;63840,00;73112,00;80104,00;87552,00
39000;60840,00;62322,00;65520,00;75036,00;82212,00;89856,00
40000;62400,00;63920,00;67200,00;76960,00;84320,00;92160,00
41000;63960,00;65518,00;68880,00;78884,00;86428,00;94464,00
42000;65520,00;67116,00;70560,00;80808,00;88536,00;96768,00
43000;67080,00;68714,00;72240,00;82732,00;90644,00;99072,00
44000;68640,00;70312,00;73920,00;84656,00;92752,00;101376,00
45000;70200,00;71910,00;75600,00;86580,00;94860,00;103680,00
46000;71760,00;73508,00;77280,00;88504,00;96968,00;105984,00
47000;73320,00;75106,00;78960,00;90428,00;99076,00;108288,00
48000;74880,00;76704,00;80640,00;92352,00;101184,00;110592,00
49000;76440,00;78302,00;82320,00;94276,00;103292,00;112896,00
50000;78000,00;79900,00;84000,00;96200,00;105400,00;115200,00