Сума/Период;3;4;6;8;10;12;14
2000;3000,00;3360,00;3960,00;4640,00;;;
2300;3450,00;3864,00;4554,00;5336,00;5980,00;;
2500;3750,00;4200,00;4950,00;5800,00;6500,00;7200,00;7700,00
2800;4200,00;4704,00;5544,00;6496,00;7280,00;8064,00;8624,00
3000;4500,00;5040,00;5940,00;6960,00;7800,00;8640,00;9240,00
3300;4950,00;5544,00;6534,00;7656,00;8580,00;9504,00;10164,00
3500;5250,00;5880,00;6930,00;8120,00;9100,00;10080,00;10780,00
4000;6000,00;6720,00;7920,00;9280,00;10400,00;11520,00;12320,00
4500;6750,00;7560,00;8910,00;10440,00;11700,00;12960,00;13860,00
5000;7500,00;8400,00;9900,00;11600,00;13000,00;14400,00;15400,00
5500;8250,00;9240,00;10890,00;12760,00;14300,00;15840,00;16940,00
6000;9000,00;10080,00;11880,00;13920,00;15600,00;17280,00;18480,00
6500;9750,00;10920,00;12870,00;15080,00;16900,00;18720,00;20020,00
7000;10500,00;11760,00;13860,00;16240,00;18200,00;20160,00;21560,00
7500;11250,00;12600,00;14850,00;17400,00;19500,00;21600,00;23100,00
8000;12000,00;13440,00;15840,00;18560,00;20800,00;23040,00;24640,00
8500;12750,00;14280,00;16830,00;19720,00;22100,00;24480,00;26180,00
9000;13500,00;15120,00;17820,00;20880,00;23400,00;25920,00;27720,00
9500;14250,00;15960,00;18810,00;22040,00;24700,00;27360,00;29260,00
10000;15000,00;16800,00;19800,00;23200,00;26000,00;28800,00;30800,00
10500;15750,00;17640,00;20790,00;24360,00;27300,00;30240,00;32340,00
11000;16500,00;18480,00;21780,00;25520,00;28600,00;31680,00;33880,00
11500;17250,00;19320,00;22770,00;26680,00;29900,00;33120,00;35420,00
12000;18000,00;20160,00;23760,00;27840,00;31200,00;34560,00;36960,00
12500;18750,00;21000,00;24750,00;29000,00;32500,00;36000,00;38500,00
13000;19500,00;21840,00;25740,00;30160,00;33800,00;37440,00;40040,00
13500;20250,00;22680,00;26730,00;31320,00;35100,00;38880,00;41580,00
14000;21000,00;23520,00;27720,00;32480,00;36400,00;40320,00;43120,00
14500;21750,00;24360,00;28710,00;33640,00;37700,00;41760,00;44660,00
15000;22500,00;25200,00;29700,00;34800,00;39000,00;43200,00;46200,00
16000;24000,00;26880,00;31680,00;37120,00;41600,00;46080,00;49280,00
17000;25500,00;28560,00;33660,00;39440,00;44200,00;48960,00;52360,00
18000;27000,00;30240,00;35640,00;41760,00;46800,00;51840,00;55440,00
19000;28500,00;31920,00;37620,00;44080,00;49400,00;54720,00;58520,00
20000;30000,00;33600,00;39600,00;46400,00;52000,00;57600,00;61600,00
21000;31500,00;35280,00;41580,00;48720,00;54600,00;60480,00;64680,00
22000;33000,00;36960,00;43560,00;51040,00;57200,00;63360,00;67760,00
23000;34500,00;38640,00;45540,00;53360,00;59800,00;66240,00;70840,00
24000;36000,00;40320,00;47520,00;55680,00;62400,00;69120,00;73920,00
25000;37500,00;42000,00;49500,00;58000,00;65000,00;72000,00;77000,00
26000;39000,00;43680,00;51480,00;60320,00;67600,00;74880,00;80080,00
27000;40500,00;45360,00;53460,00;62640,00;70200,00;77760,00;83160,00
28000;42000,00;47040,00;55440,00;64960,00;72800,00;80640,00;86240,00
29000;43500,00;48720,00;57420,00;67280,00;75400,00;83520,00;89320,00
30000;45000,00;50400,00;59400,00;69600,00;78000,00;86400,00;92400,00
31000;46500,00;52080,00;61380,00;71920,00;80600,00;89280,00;95480,00
32000;48000,00;53760,00;63360,00;74240,00;83200,00;92160,00;98560,00
33000;49500,00;55440,00;65340,00;76560,00;85800,00;95040,00;101640,00
34000;51000,00;57120,00;67320,00;78880,00;88400,00;97920,00;104720,00
35000;52500,00;58800,00;69300,00;81200,00;91000,00;100800,00;107800,00
36000;54000,00;60480,00;71280,00;83520,00;93600,00;103680,00;110880,00
37000;55500,00;62160,00;73260,00;85840,00;96200,00;106560,00;113960,00
38000;57000,00;63840,00;75240,00;88160,00;98800,00;109440,00;117040,00
39000;58500,00;65520,00;77220,00;90480,00;101400,00;112320,00;120120,00
40000;60000,00;67200,00;79200,00;92800,00;104000,00;115200,00;123200,00
41000;;68880,00;81180,00;95120,00;106600,00;118080,00;126280,00
42000;;70560,00;83160,00;97440,00;109200,00;120960,00;129360,00
43000;;72240,00;85140,00;99760,00;111800,00;123840,00;132440,00
44000;;73920,00;87120,00;102080,00;114400,00;126720,00;135520,00
45000;;75600,00;89100,00;104400,00;117000,00;129600,00;138600,00
46000;;77280,00;91080,00;106720,00;119600,00;132480,00;141680,00
47000;;78960,00;93060,00;109040,00;122200,00;135360,00;144760,00
48000;;80640,00;95040,00;111360,00;124800,00;138240,00;147840,00
49000;;82320,00;97020,00;113680,00;127400,00;141120,00;150920,00
50000;;84000,00;99000,00;116000,00;130000,00;144000,00;154000,00