<?xml version="1.0" encoding="utf-8"?>
<!-- Generator: Adobe Illustrator 22.0.1, SVG Export Plug-In . SVG Version: 6.00 Build 0)  -->
<svg version="1.1" id="Layer_1" xmlns="http://www.w3.org/2000/svg" xmlns:xlink="http://www.w3.org/1999/xlink" x="0px" y="0px"
	 viewBox="0 0 181.1 121.3" style="enable-background:new 0 0 181.1 121.3;" xml:space="preserve">
<style type="text/css">
	.st0{fill:#F9F9F9;}
	.st1{fill:#F9272F;}
	.st2{fill:#004680;}
</style>
<g>
	<polygon class="st0" points="0,0.4 90.4,60.7 181.1,60.7 181.1,0 0,0 	"/>
	<polygon class="st1" points="0,121 0,121.3 181.1,121.3 181.1,60.7 90.4,60.7 	"/>
	<polygon class="st2" points="90.4,60.7 0,0.4 0,121 	"/>
</g>
</svg>
