<?xml version="1.0" encoding="utf-8"?>
<!-- Generator: Adobe Illustrator 22.0.1, SVG Export Plug-In . SVG Version: 6.00 Build 0)  -->
<svg version="1.1" xmlns="http://www.w3.org/2000/svg" xmlns:xlink="http://www.w3.org/1999/xlink" x="0px" y="0px"
	 viewBox="0 0 196 196" style="enable-background:new 0 0 196 196;" xml:space="preserve">
<style type="text/css">
	.st0{fill:#FFFFFF;}
	.st1{fill:#FFFFFF;stroke:#1A1A1A;stroke-width:12;stroke-miterlimit:10;}
</style>
<g id="Layer_1">
</g>
<g id="Layer_2">
	<g>
		<g>
			<g>
				<path class="st0" d="M98,196c-54,0-98-44-98-98S44,0,98,0c3.8,0,7.6,0.2,11.4,0.7C158.8,6.4,196,48.2,196,98
					C196,152,152,196,98,196z M98,8.2C48.5,8.2,8.2,48.5,8.2,98s40.3,89.8,89.8,89.8c49.5,0,89.8-40.3,89.8-89.8
					c0-45.6-34.1-84-79.4-89.2C105,8.4,101.5,8.2,98,8.2z"/>
			</g>
		</g>
		<g>
			<g>
				<path class="st0" d="M118.6,10.7c0,0-4.2-2.3-20.6,11.5c-14.9,12.6-15-2.6-14.8-5.4c0-0.3-0.1-0.6-0.2-0.8
					c-1.2-1.9-6.4-8.8-10.5,10.9c0,0.2-0.1,0.4-0.3,0.6c-0.9,1.1-4.2,4.6-8.6-0.3c-5.1-5.7-28,11.1-0.9,13.5c0.3,0,0.5,0,0.8-0.1
					c2.7-1.3,19.4-9,16.6,0.2c-1.8,5.8-1.5,8.3-0.9,9.3c0.3,0.6,0.2,1.3-0.3,1.8c-1.8,1.7-5.1,5.2-5.7,8.4c-0.7,3.9-3.8,4.9-2.9,9.4
					c0.2,0.9-0.5,1.7-1.3,1.8c-2.3,0.2-5.9,1.9-6.4,10.1c-0.1,1.5-2,1.9-2.8,0.7c-2.6-4.6-6.9-8.5-13.3-3.9
					c-0.2,0.1-0.4,0.2-0.7,0.3c-2.7,0.3-19,2.9-7.6,19c0.2,0.3,0.3,0.7,0.2,1.1c-0.2,1.4,7.5-2.7,11.5-5c0.4-0.2,0.9,0.3,0.6,0.7
					c-1.9,2.6-4,7.2,1.4,10.4c0.6,0.4,1.4,0.2,1.9-0.3c1.6-1.9,5.3-5.7,4.7,0.9c-0.8,8.5,7.7,13.8,10,12.3
					c2.2-1.4-2.8,5.7-20.5-10.5c-1.1-1-2.6-1.3-4-0.9c-3,1-8.9,1.6-15.2-4.8c-0.2-0.2-0.4-0.5-0.4-0.8c-0.5-2.9-3.3-18.8-7.9-22.3
					c-3.7-2.8-8.9-5-11.4-5.9c-0.8-0.3-1.2-1.2-0.9-1.9C12.8,59.3,45.3-14.2,118.6,10.7z"/>
			</g>
			<g>
				<path class="st0" d="M66.8,120.3c-3.6,0-10-2-20.3-11.5c-0.4-0.4-1.1-0.5-1.7-0.3c-3.5,1.1-10.4,1.9-17.6-5.4
					c-0.6-0.6-0.9-1.3-1.1-2.1c-1.4-8.5-4.2-18.7-7-20.8c-3.6-2.7-8.7-4.8-10.8-5.6c-1-0.4-1.7-1.1-2.2-2c-0.4-0.9-0.4-2-0.1-3
					C8.6,63.6,18,42.3,36,25.4C46.5,15.6,58.1,9,70.5,5.7c15-4,31.4-3.1,48.5,2.7c0.3,0.1,0.5,0.2,0.7,0.3l-1.9,4.3c0,0,0,0,0,0
					c-0.5,0-5.2,0-18.3,11.1c-5.9,5-10.4,6.6-13.9,4.8c-4.5-2.2-4.9-8.8-4.8-11.9c-0.6-1-1.3-1.4-1.4-1.4c0,0-2.3,0.7-4.6,11.7
					c-0.1,0.6-0.4,1.1-0.7,1.6c-0.7,0.9-2.7,3-5.7,3.1c-2.3,0.1-4.5-1-6.5-3.3c-0.5-0.6-2.6-0.5-5.1,0.6c-3.1,1.5-4.9,3.9-4.7,5.1
					c0.2,1.3,3.2,3.1,10.6,3.8c6.5-3.1,14.9-6.1,18.4-3.1c1.1,0.9,2.2,2.8,1.2,6.2c-1.8,6-1.1,7.5-1.1,7.5c0.8,1.5,0.5,3.4-0.7,4.6
					c-2.8,2.7-4.7,5.3-5,7.1c-0.4,2-1.2,3.4-1.9,4.6c-0.9,1.4-1.4,2.2-1,4c0.2,1,0,2.1-0.7,3c-0.6,0.9-1.6,1.5-2.7,1.6
					c-3.3,0.3-4.1,5.1-4.3,7.9c-0.1,1.7-1.3,3.1-3,3.5c-1.7,0.4-3.3-0.4-4.2-1.8c-1.1-1.9-2.8-4.2-4.9-4.7c-1.4-0.3-3.1,0.2-5,1.5
					c-0.5,0.4-1.2,0.6-1.8,0.7c-0.7,0.1-7.4,0.9-9.1,4.7c-1.4,3.1,0.9,7.4,3,10.5c1.5-0.6,4.3-2,8.8-4.5c1.2-0.7,2.6-0.4,3.5,0.6
					c0.9,1,0.9,2.5,0.2,3.5c-0.7,1-1.9,2.9-1.6,4.4c0.2,0.8,0.7,1.5,1.7,2.2c1.6-1.8,3.9-3.8,6.1-2.9c2.6,1.1,2.3,4.7,2.2,6.1
					c-0.4,3.9,1.7,6.6,3,7.8c1.6,1.6,3.1,2.1,3.6,2.2c2.1-1.2,3.3,0.3,3.4,0.5c0.8,1,0.6,2.4-0.3,3.2
					C70.5,119.3,69.3,120.3,66.8,120.3z M51.6,107.1c2,1.8,3.9,3.2,5.5,4.3c-0.7-1.8-1-3.8-0.9-6c-0.2,0.2-0.3,0.4-0.5,0.6
					C54.7,107.1,53.1,107.6,51.6,107.1z M30.7,100c5.1,5,9.7,5,12.6,4c1.5-0.5,3-0.4,4.4,0.2c-0.7-0.9-1.2-2-1.4-3.1
					c-0.2-0.9-0.2-1.9,0-2.8c-0.7,0.4-1.4,0.7-2.1,1.1c-4.2,2-5.7,2.3-7,1.4c-0.7-0.5-1.1-1.3-1.1-2.2c-4-5.9-5.2-10.9-3.4-15
					c2.6-5.7,10-7.1,12.6-7.4c2.9-2,5.8-2.8,8.5-2.2c2.5,0.6,4.7,2.2,6.7,4.9c1.1-7,4.7-9.1,7.3-9.6c-0.4-3,0.8-4.9,1.7-6.5
					c0.6-1,1.1-1.8,1.3-2.9c0.6-3.4,3.5-6.8,5.9-9.3c-0.8-2.2-0.5-5.5,1-10.5c0.2-0.7,0.2-1.1,0.2-1.3c-1.1-0.6-6.3,0.5-13.5,3.9
					c-0.6,0.3-1.3,0.4-2,0.4c-9.2-0.8-14.2-3.4-15-7.7c-0.8-4.2,3.1-8.1,7.3-10.2c4.4-2.2,8.5-2,10.7,0.4c0.7,0.8,1.8,1.8,2.8,1.7
					c0.9,0,1.7-0.8,2-1.2c2.1-9.9,4.6-14.6,8.3-15.2c2.3-0.4,4.7,1,6.4,3.8c0.4,0.6,0.6,1.4,0.6,2.2c-0.1,3.2,0.5,6.9,2.1,7.7
					c0.6,0.3,2.9,0.8,8.9-4.2c5.9-5,10.3-8,13.7-9.8c-63.8-16.4-93.2,45-99.4,60c2.9,1.1,7.6,3.2,11.1,5.9
					C26.9,80.3,29.7,94,30.7,100z"/>
			</g>
		</g>
		<g>
			<g>
				<path class="st1" d="M118.6,10.7"/>
			</g>
		</g>
		<g>
			<g>
				<path class="st0" d="M69,116.1c1.4-3.8,7.1-12.6,29,0.5c1,0.6,2.2,0.9,3.4,0.8c2.7-0.3,7.7,0,9.5,4.8c0.8,2.2,2.9,3.6,5.2,3.6
					c5.9,0.1,14.8,2,7.5,14.1c-0.2,0.4-0.5,0.7-0.8,1c-1.3,1.3-5.3,5.6-8.1,11.7c-0.5,1-1.2,1.8-2.1,2.4c-2.8,1.8-8.8,6.1-10,11.7
					c-0.3,1.2-0.9,2.4-1.9,3.2c-3.1,2.7-9.7,9.4-11,19.2c-1.5,11.6-15.6-14.7-14.9-25.1c0.1-2-0.8-3.8-2.4-5
					c-2.5-1.8-5.6-4.5-5.9-7.3c-0.1-0.6-0.2-1.2-0.4-1.7c-1.3-3-5.3-12.2-6.4-12.2c-1.3,0,1-13.5,7.5-19C68,117.9,68.6,117,69,116.1
					z"/>
			</g>
			<g>
				<path class="st0" d="M88,193.6c-0.1,0-0.2,0-0.3,0c-3.7-0.4-7.7-7.7-9.7-12c-2.6-5.4-5.2-13-4.9-17.9c0.1-1.4-0.5-2.6-1.6-3.4
					c-4.1-2.9-6.3-5.7-6.6-8.6c-0.1-0.5-0.2-0.9-0.3-1.2c-2.8-6.6-4.8-10.3-5.5-11.2c-0.5-0.2-0.9-0.6-1.2-1.3
					c-1-2.9,2-15.5,8.3-20.7c0.6-0.5,1-1.1,1.3-1.8l0,0c0.7-1.9,2.5-5.3,6.8-6.8c5.9-2.1,14.2,0.1,24.8,6.4c0.7,0.4,1.5,0.6,2.4,0.5
					c5.6-0.5,9.7,1.6,11.3,5.9c0.6,1.5,2,2.5,3.6,2.5c5.7,0.1,9.5,1.7,11.1,4.6c1.6,3,0.9,7.1-2.2,12.1c-0.3,0.5-0.6,0.9-1,1.3
					c-1.1,1.1-5,5.4-7.8,11.2c-0.6,1.3-1.6,2.4-2.8,3.1c-2.4,1.5-8.2,5.6-9.2,10.5c-0.3,1.6-1.2,3.1-2.4,4.1
					c-2.7,2.3-9.2,8.8-10.4,18.1C91,193,89.1,193.6,88,193.6z M61.1,136.4c1.1,1,2.9,4,6.7,12.7c0.3,0.6,0.4,1.3,0.5,2.2
					c0.2,1.7,2.1,3.9,5.2,6.1c2.1,1.5,3.3,3.9,3.1,6.5c-0.5,8.2,8.1,24.5,11.1,26c0.1-0.2,0.2-0.6,0.3-1.3
					c1.4-10.6,8.6-17.7,11.6-20.3c0.7-0.6,1.1-1.3,1.3-2.2c1.3-6,7.3-10.6,10.8-12.8c0.6-0.4,1.1-1,1.5-1.7
					c2.9-6.2,6.9-10.6,8.5-12.2c0.2-0.2,0.4-0.4,0.5-0.7c2.3-3.9,3.1-6.8,2.1-8.6c-1.3-2.4-5.6-2.8-8.1-2.8c-3,0-5.7-1.9-6.8-4.7
					c-1.4-3.5-4.9-3.9-7.7-3.7c-1.6,0.2-3.1-0.2-4.5-1c-12.1-7.2-18.5-7.3-21.8-6.1c-2.8,1-4.1,3.1-4.6,4.7l0,0
					c-0.5,1.3-1.2,2.4-2.3,3.3C63.3,124.2,61.1,133.7,61.1,136.4z"/>
			</g>
		</g>
		<g>
			<g>
				<path class="st0" d="M150.9,24.4c-2.6-1.9-5.9,1.3-4.1,4c0,0.1,0.1,0.1,0.1,0.2c1.2,1.8,0.7,4.3-1.1,5.5c-2.9,2-4,1.3,3.8,5
					c4,1.9,2.8,6.3-7,8.5c-0.9,0.2-1,1.5-0.5,2.2c0.4,0.5,0.7,1.4,0.7,3c0,4.8-8.2,3.2-10.4,1.5c-2.2-1.7-3.5,11.7,0.8,12.1
					c2.9,0.2,5.2,0,4.7,1c-0.2,0.5-0.6,0.9-1.1,1.2c-3.2,2-19.3,13.8-0.7,35.3c0.7,0.8,1.8,1.2,2.8,0.9c4.3-1,15.9-2.8,17.9,4.9
					c2.4,9.5,0.7,20.8,3.8,23.9c3.1,3.1,3.4,5.8,4.8,7.2c1.4,1.4,5.8,3.4,4.1,6.5c-1.7,3.1-3.7,5.2-4.8,11.6
					c-1.1,6.4-4.4,9.5-4.4,9.5S241.6,89,150.9,24.4z"/>
			</g>
			<g>
				<path class="st0" d="M161.5,169.6L159,167c0,0,0,0,0.1-0.1c0.4-0.4,2.9-3.2,3.8-8.4c1-5.5,2.5-8.1,4-10.5c0.3-0.5,0.6-1.1,1-1.6
					c0.5-0.8-0.1-1.5-2.3-3.2c-0.5-0.4-1.1-0.8-1.5-1.2c-0.7-0.7-1.2-1.7-1.7-2.7c-0.7-1.3-1.4-2.8-3.1-4.5
					c-2.2-2.2-2.4-6.6-2.7-12.2c-0.2-4-0.5-8.5-1.5-12.5c-1.6-6.3-12.5-4.4-15.8-3.6c-1.7,0.4-3.4-0.2-4.5-1.5
					c-7.1-8.2-10.1-15.9-9.1-23.1c1-7,5.7-11.5,8.5-13.7c-0.4,0-0.8,0-1.3-0.1c-1.1-0.1-3.1-0.8-4-4.3c-0.9-3.4-0.5-9.6,1.7-11.1
					c0.9-0.6,1.9-0.5,2.7,0.1c1.1,0.9,5.1,1.9,7,1c0.4-0.2,0.6-0.4,0.6-1.1c0-1.4-0.3-1.9-0.3-1.9c-0.7-0.9-0.8-2.2-0.5-3.2
					c0.3-0.9,1-1.5,1.9-1.7c6.2-1.4,7.7-3.4,7.8-4.1c0-0.4-0.6-0.9-1.2-1.2l-0.9-0.4c-5-2.4-6-2.9-6.1-4.5c-0.1-1.3,1-2,1.9-2.5
					c0.3-0.2,0.6-0.4,1-0.6c1-0.7,1.3-2.1,0.6-3.1l-0.1-0.2c-1.3-1.9-1-4.4,0.7-6c1.6-1.6,4.1-1.8,6-0.4l0,0
					c26.9,19.2,41.5,41.5,43.4,66.5c1.7,22.7-7.6,43.3-15.7,56.5C171.2,159.8,162.5,168.6,161.5,169.6
					C161.5,169.5,161.5,169.6,161.5,169.6z M146.6,102c5.1,0,10.5,1.5,12,7.2c1.1,4.4,1.4,9.1,1.6,13.2c0.2,4.2,0.5,8.6,1.7,9.9
					c2,2,3,4,3.7,5.4c0.4,0.8,0.7,1.4,1.1,1.8c0.2,0.2,0.6,0.5,1.1,0.8c1.8,1.3,5.4,4,3.3,7.8c-0.3,0.6-0.7,1.2-1,1.7
					c-1.3,2.2-2.6,4.3-3.4,8.7c10.4-13,27.5-39.3,25.3-68.8c-1.8-23.9-15.9-45.4-41.9-63.9l0,0c-0.7-0.5-1.3-0.1-1.5,0.1
					c-0.2,0.2-0.7,0.7-0.2,1.5l0.1,0.2c1.7,2.6,1,6.2-1.5,7.9c-0.1,0.1-0.2,0.1-0.2,0.2c0.8,0.4,1.8,0.9,2.9,1.4l0.9,0.4
					c2.2,1,3.3,2.8,3.1,4.7c-0.3,3-3.8,5.4-9.7,6.9c0.5,0.9,0.8,2.1,0.8,3.6c0,1.9-0.9,3.4-2.6,4.2c-2.7,1.3-7,0.6-9.5-0.7
					c-0.5,1.7-0.7,5.4,0.2,7.5c0.2,0.4,0.4,0.7,0.6,0.7c0.7,0.1,1.3,0.1,1.9,0.1c2.1,0.1,3.5,0.2,4.2,1.4c0.4,0.6,0.4,1.4,0,2.1
					c-0.4,0.8-1,1.4-1.7,1.9c-1.7,1.1-7.5,5.2-8.5,12.3c-0.9,6.1,1.9,12.9,8.2,20.3c0.3,0.3,0.7,0.5,1.1,0.4
					C140.5,102.5,143.5,102,146.6,102z"/>
			</g>
		</g>
	</g>
</g>
</svg>
