<?xml version="1.0" encoding="utf-8"?>
<!-- Generator: Adobe Illustrator 22.0.1, SVG Export Plug-In . SVG Version: 6.00 Build 0)  -->
<svg version="1.1" id="Layer_1" xmlns="http://www.w3.org/2000/svg" xmlns:xlink="http://www.w3.org/1999/xlink" x="0px" y="0px"
	 viewBox="0 0 58.6 56.8" style="enable-background:new 0 0 58.6 56.8;" xml:space="preserve">
<style type="text/css">
	.st0{fill:#FFFFFF;stroke:#FFFFFF;stroke-miterlimit:10;}
</style>
<g>
	<path class="st0" d="M46.6,32.7l1.5-0.3C46,21.1,37,12.3,25.7,10.5L25.5,12C36.1,13.7,44.6,22,46.6,32.7z"/>
	<path class="st0" d="M57.8,30.6C55,15.3,42.8,3.3,27.4,0.8l-0.3,1.5c14.7,2.4,26.4,13.9,29.1,28.6L57.8,30.6z"/>
	<path class="st0" d="M5.8,10c-4,1.9-5.9,6.1-4.7,10.3c1.8,6.4,5.2,12.5,10.5,18.9c2.7,3.3,5.9,6.2,9.8,9c5.1,3.7,10,6.1,15,7.5
		c0.8,0.2,1.6,0.3,2.5,0.3c0.9,0,1.9-0.2,2.8-0.4c3.8-1.2,5.3-4.3,6.6-7.7l1.8-4.4l-15.6-7.3L34.1,37c-0.4,0.8-1.7,3.6-1.7,3.6
		l-0.7,1.5C24,39.7,15.8,28.6,14.5,25.2l6-2.8L13.2,6.6l-0.7,0.3c-0.3,0.1-1.2,0.5-2.2,1C8.6,8.7,6.4,9.7,5.8,10z M12.4,8.7l6,12.9
		l-5.7,2.7l0.1,0.6c0.6,3.4,10.4,16.7,19.1,18.9l0.6,0.2l1.3-2.7c0,0,0.8-1.8,1.3-2.9l12.8,6l-1.2,3c-1.2,3.1-2.4,5.8-5.6,6.8
		c-1.5,0.5-2.9,0.5-4.3,0.1c-4.8-1.4-9.6-3.8-14.5-7.3c-3.8-2.7-6.9-5.5-9.5-8.7c-5.2-6.2-8.4-12-10.2-18.3c-1-3.5,0.6-6.9,3.9-8.5
		c0.6-0.3,2.7-1.2,4.4-2C11.5,9.1,12,8.9,12.4,8.7z"/>
</g>
</svg>
