<?xml version="1.0" encoding="utf-8"?>
<!-- Generator: Adobe Illustrator 22.0.1, SVG Export Plug-In . SVG Version: 6.00 Build 0)  -->
<svg version="1.1" id="Layer_1" xmlns="http://www.w3.org/2000/svg" xmlns:xlink="http://www.w3.org/1999/xlink" x="0px" y="0px"
	 viewBox="0 0 181.1 121.3" style="enable-background:new 0 0 181.1 121.3;" xml:space="preserve">
<style type="text/css">
	.st0{fill:#0076BD;}
	.st1{fill:#FFE100;}
</style>
<g>
	<rect x="0" y="0" class="st0" width="181.1" height="60.7"/>
	<rect x="0" y="60.7" class="st1" width="181.1" height="60.7"/>
</g>
</svg>
