Сума/Период;6;8;11;14;19;23;28
2000;2928,00;3264,00;3608,00;;;;
2300;3372,00;3760,00;4158,00;4648,00;;;
2500;3660,00;4080,00;4510,00;5040,00;5890,00;;
2800;4104,00;4576,00;5060,00;5656,00;6612,00;7360,00;
3000;4392,00;4896,00;5412,00;6048,00;7068,00;7866,00;8736,00
3300;4836,00;5392,00;5962,00;6664,00;7790,00;8671,00;9632,00
3500;5124,00;5712,00;6314,00;7056,00;8246,00;9177,00;10192,00
4000;5856,00;6528,00;7216,00;8064,00;9424,00;10488,00;11648,00
4500;6588,00;7344,00;8118,00;9072,00;10602,00;11799,00;13104,00
5000;7320,00;8160,00;9020,00;10080,00;11780,00;13110,00;14560,00
5500;8052,00;8976,00;9922,00;11088,00;12958,00;14421,00;16016,00
6000;8784,00;9792,00;10824,00;12096,00;14136,00;15732,00;17472,00
6500;9516,00;10608,00;11726,00;13104,00;15314,00;17043,00;18928,00
7000;10248,00;11424,00;12628,00;14112,00;16492,00;18354,00;20384,00
7500;10980,00;12240,00;13530,00;15120,00;17670,00;19665,00;21840,00
8000;11712,00;13056,00;14432,00;16128,00;18848,00;20976,00;23296,00
8500;12444,00;13872,00;15334,00;17136,00;20026,00;22287,00;24752,00
9000;13176,00;14688,00;16236,00;18144,00;21204,00;23598,00;26208,00
9500;13908,00;15504,00;17138,00;19152,00;22382,00;24909,00;27664,00
10000;14640,00;16320,00;18040,00;20160,00;23560,00;26220,00;29120,00
10500;15372,00;17136,00;18942,00;21168,00;24738,00;27531,00;30576,00
11000;16104,00;17952,00;19844,00;22176,00;25916,00;28842,00;32032,00
11500;16836,00;18768,00;20746,00;23184,00;27094,00;30153,00;33488,00
12000;17568,00;19584,00;21648,00;24192,00;28272,00;31464,00;34944,00
12500;18300,00;20400,00;22550,00;25200,00;29450,00;32775,00;36400,00
13000;19032,00;21216,00;23452,00;26208,00;30628,00;34086,00;37856,00
13500;19764,00;22032,00;24354,00;27216,00;31806,00;35397,00;39312,00
14000;20496,00;22848,00;25256,00;28224,00;32984,00;36708,00;40768,00
14500;21228,00;23664,00;26158,00;29232,00;34162,00;38019,00;42224,00
15000;21960,00;24480,00;27060,00;30240,00;35340,00;39330,00;43680,00
16000;23424,00;26112,00;28864,00;32256,00;37696,00;41952,00;46592,00
17000;24888,00;27744,00;30668,00;34272,00;40052,00;44574,00;49504,00
18000;26352,00;29376,00;32472,00;36288,00;42408,00;47196,00;52416,00
19000;27816,00;31008,00;34276,00;38304,00;44764,00;49818,00;55328,00
20000;29280,00;32640,00;36080,00;40320,00;47120,00;52440,00;58240,00
21000;30744,00;34272,00;37884,00;42336,00;49476,00;55062,00;61152,00
22000;32208,00;35904,00;39688,00;44352,00;51832,00;57684,00;64064,00
23000;33672,00;37536,00;41492,00;46368,00;54188,00;60306,00;66976,00
24000;35136,00;39168,00;43296,00;48384,00;56544,00;62928,00;69888,00
25000;36600,00;40800,00;45100,00;50400,00;58900,00;65550,00;72800,00
26000;38064,00;42432,00;46904,00;52416,00;61256,00;68172,00;75712,00
27000;39528,00;44064,00;48708,00;54432,00;63612,00;70794,00;78624,00
28000;40992,00;45696,00;50512,00;56448,00;65968,00;73416,00;81536,00
29000;42456,00;47328,00;52316,00;58464,00;68324,00;76038,00;84448,00
30000;43920,00;48960,00;54120,00;60480,00;70680,00;78660,00;87360,00
31000;45384,00;50592,00;55924,00;62496,00;73036,00;81282,00;90272,00
32000;46848,00;52224,00;57728,00;64512,00;75392,00;83904,00;93184,00
33000;48312,00;53856,00;59532,00;66528,00;77748,00;86526,00;96096,00
34000;49776,00;55488,00;61336,00;68544,00;80104,00;89148,00;99008,00
35000;51240,00;57120,00;63140,00;70560,00;82460,00;91770,00;101920,00
36000;52704,00;58752,00;64944,00;72576,00;84816,00;94392,00;104832,00
37000;54168,00;60384,00;66748,00;74592,00;87172,00;97014,00;107744,00
38000;55632,00;62016,00;68552,00;76608,00;89528,00;99636,00;110656,00
39000;57096,00;63648,00;70356,00;78624,00;91884,00;102258,00;113568,00
40000;58560,00;65280,00;72160,00;80640,00;94240,00;104880,00;116480,00
41000;;66912,00;73964,00;82656,00;96596,00;107502,00;119392,00
42000;;68544,00;75768,00;84672,00;98952,00;110124,00;122304,00
43000;;70176,00;77572,00;86688,00;101308,00;112746,00;125216,00
44000;;71808,00;79376,00;88704,00;103664,00;115368,00;128128,00
45000;;73440,00;81180,00;90720,00;106020,00;117990,00;131040,00
46000;;75072,00;82984,00;92736,00;108376,00;120612,00;133952,00
47000;;76704,00;84788,00;94752,00;110732,00;123234,00;136864,00
48000;;78336,00;86592,00;96768,00;113088,00;125856,00;139776,00
49000;;79968,00;88396,00;98784,00;115444,00;128478,00;142688,00
50000;;81600,00;90200,00;100800,00;117800,00;131100,00;145600,00