Loan body / period;8;10;12
2000;350,00;300,00;266,00
2300;403,00;345,00;306,00
2500;438,00;375,00;333,00
2800;490,00;420,00;373,00
3000;525,00;450,00;399,00
3300;578,00;495,00;439,00
3500;613,00;525,00;466,00
4000;700,00;600,00;532,00
4500;788,00;675,00;599,00
5000;875,00;750,00;665,00