Сума/Период;4;6;9;12;15
1000;0,0208;0,0136;0,0102;;
1500;0,0208;0,0130;0,0116;;
2000;0,0208;0,0139;0,0102;0,0861;0,0091
2300;0,0208;0,0136;0,0105;0,0117;0,0087
2500;0,0208;0,0136;0,0102;0,0113;0,0087
2800;0,0208;0,0136;0,0099;0,0108;0,0066
3000;0,0208;0,0136;0,0102;0,0120;0,0081
3300;0,0208;0,0136;0,0105;0,0131;0,0091
3500;0,0208;0,0136;0,0102;0,0117;0,0097
4000;0,0208;0,0136;0,0104;0,0244;0,0083
4500;0,0208;0,0164;0,0102;0,0112;0,0089
5000;0,0208;0,0137;0,0104;0,0208;0,0093
5500;0,0208;0,0136;0,0102;0,0119;0,0093
6000;0,0208;0,0138;0,0103;0,0113;0,0087
6500;0,0208;0,0136;0,0102;0,0119;0,0084
7000;0,0208;0,0134;0,0103;0,0115;0,0084
7500;0,0208;0,0136;0,0104;0,0117;0,0088
8000;0,0208;0,0133;0,0104;0,0116;0,0091
8500;0,0208;0,0137;0,0104;0,0122;0,0086
9000;0,0208;0,0136;0,0102;0,0117;0,0087
9500;0,0208;0,0136;0,0104;0,0117;0,0082
10000;0,0208;0,0136;0,0101;0,0117;0,0091
10500;0,0208;0,0136;0,0103;0,0116;0,0089
11000;0,0208;0,0136;0,0100;0,0117;0,0087
11500;0,0208;0,0136;0,0103;0,0117;0,0174
12000;0,0208;0,0135;0,0101;0,0117;0,0088
12500;0,0208;0,0137;0,0103;0,0116;0,0090
13000;0,0206;0,0136;0,0101;0,0117;0,0086
13500;0,0207;0,0135;0,0103;0,0117;0,0087
14000;0,0207;0,0136;0,0100;0,0118;0,0085
14500;0,0208;0,0135;0,0103;0,0118;0,0087
15000;0,0207;0,0137;0,0102;0,0114;0,0086