Сума/Период;4;6;9;12;15
1000;1540,00;1770,00;2115,00;;
1500;2310,00;2655,00;3172,50;;
2000;3080,00;3540,00;4230,00;4920,00;5550,00
2300;3542,00;4071,00;4864,50;5658,00;6382,50
2500;3850,00;4425,00;5287,50;6150,00;6937,50
2800;4312,00;4956,00;5922,00;6888,00;7770,00
3000;4620,00;5310,00;6345,00;7380,00;8325,00
3300;5082,00;5841,00;6979,50;8118,00;9157,50
3500;5390,00;6195,00;7402,50;8610,00;9712,50
4000;6160,00;7080,00;8460,00;9840,00;11100,00
4500;6930,00;7965,00;9517,50;11070,00;12487,50
5000;7700,00;8850,00;10575,00;12300,00;13875,00
5500;8470,00;9735,00;11632,50;13530,00;15262,50
6000;9240,00;10620,00;12690,00;14760,00;16650,00
6500;10010,00;11505,00;13747,50;15990,00;18037,50
7000;10780,00;12390,00;14805,00;17220,00;19425,00
7500;11550,00;13275,00;15862,50;18450,00;20812,50
8000;12320,00;14160,00;16920,00;19680,00;22200,00
8500;13090,00;15045,00;17977,50;20910,00;23587,50
9000;13860,00;15930,00;19035,00;22140,00;24975,00
9500;14630,00;16815,00;20092,50;23370,00;26362,50
10000;15400,00;17700,00;21150,00;24600,00;27750,00
10500;16170,00;18585,00;22207,50;25830,00;29137,50
11000;16940,00;19470,00;23265,00;27060,00;30525,00
11500;17710,00;20355,00;24322,50;28290,00;31912,50
12000;18480,00;21240,00;25380,00;29520,00;33300,00
12500;19250,00;22125,00;26437,50;30750,00;34687,50
13000;20020,00;23010,00;27495,00;31980,00;36075,00
13500;20790,00;23895,00;28552,50;33210,00;37462,50
14000;21560,00;24780,00;29610,00;34440,00;38850,00
14500;22330,00;25665,00;30667,50;35670,00;40237,50
15000;23100,00;26550,00;31725,00;36900,00;41625,00