Link;Redirect to;
http://www.icredit.ua/Product;https://www.icredit.ua/kredyty
http://www.icredit.ua/icredit;https://www.icredit.ua/kredyty/icredit
http://www.icredit.ua/bimonth;https://www.icredit.ua/kredyty/bi-month
http://www.icredit.ua/imonth;https://www.icredit.ua/kredyty/i-month
http://www.icredit.ua/Products/NewOffers;https://www.icredit.ua/aktsii
http://www.icredit.ua/Loyalty;https://www.icredit.ua/prohrama-loialnosti
http://www.icredit.ua/ibonus;https://www.icredit.ua/prohrama-loialnosti/i-bonus
http://www.icredit.ua/Catalog;https://www.icredit.ua/prohrama-loialnosti/podarunky
http://www.icredit.ua/News;https://www.icredit.ua/novyny
http://www.icredit.ua/ApplicationKK;https://www.icredit.ua/kariera/staty-kredytnym-konsultantom
http://www.icredit.ua/Our_staff;https://www.icredit.ua/icredit-yak-robotodavets
http://www.icredit.ua/Notice/Index;https://www.icredit.ua/kariera/vsi
http://www.icredit.ua/Motivational_programs;https://www.icredit.ua/kariera/motyvatsiini-prohramy
http://www.icredit.ua/contacts;https://www.icredit.ua/kontakty
http://www.icredit.ua/FAQ;https://www.icredit.ua/pytannia
http://icredit.ua/AboutUs;https://www.icredit.ua/pro-nas
http://www.icredit.ua/svidetelstvo;https://www.icredit.ua/yurydychna-informatsiia
http://icredit.ua/SocialActivity;https://www.icredit.ua/sotsialna-aktyvnist
http://icredit.ua/Semeenbudget;https://www.icredit.ua/simeini-finansy
http://icredit.ua/Ratio;https://www.icredit.ua/finansova-kultura
http://icredit.ua/Finansovagramota;https://www.icredit.ua/finansovyi-slovnyk
http://www.icredit.ua/verocash;https://www.icredit.ua/vero-cash
http://www.icredit.ua/moneyshop;https://www.icredit.ua/money-shop
http://www.icredit.ua/Comments;https://www.icredit.ua/vidhuky-kliientiv
http://icredit.ua/Creditrequest?button=Calculator;https://www.icredit.ua/kredyty/pryiniaty/icredit?amount=2000.00
http://www.icredit.ua/Creditrequest?button=TOP;https://www.icredit.ua/kredyty/pryiniaty/icredit?amount=2000.00
http://www.icredit.ua/Creditrequest;https://www.icredit.ua/kredyty/pryiniaty/icredit?amount=2000.00
http://www.icredit.ua/FastCreditRequest;https://www.icredit.ua/kredyty/pryiniaty/icredit?amount=2000.00
http://www.icredit.ua/Promotions;https://www.icredit.ua/aktsii
http://www.icredit.ua/News?page=0;https://www.icredit.ua/novyny
http://www.icredit.ua/News?page=1;https://www.icredit.ua/novyny
http://www.icredit.ua/News?page=2;https://www.icredit.ua/novyny
http://www.icredit.ua/News?page=3;https://www.icredit.ua/novyny
http://www.icredit.ua/News?page=4;https://www.icredit.ua/novyny
http://www.icredit.ua/News?page=5;https://www.icredit.ua/novyny
http://www.icredit.ua/News?page=6;https://www.icredit.ua/novyny
http://www.icredit.ua/News?page=7;https://www.icredit.ua/novyny
http://www.icredit.ua/News?page=8;https://www.icredit.ua/novyny
http://www.icredit.ua/News?page=9;https://www.icredit.ua/novyny
http://www.icredit.ua/News?page=10;https://www.icredit.ua/novyny
http://www.icredit.ua/News?page=11;https://www.icredit.ua/novyny
http://www.icredit.ua/News?page=12;https://www.icredit.ua/novyny
http://www.icredit.ua/News?page=13;https://www.icredit.ua/novyny
http://www.icredit.ua/News?page=14;https://www.icredit.ua/novyny
http://www.icredit.ua/News?page=15;https://www.icredit.ua/novyny
http://www.icredit.ua/News?page=16;https://www.icredit.ua/novyny
http://www.icredit.ua/News?page=17;https://www.icredit.ua/novyny
http://www.icredit.ua/News?page=18;https://www.icredit.ua/novyny
http://www.icredit.ua/News?page=19;https://www.icredit.ua/novyny
http://www.icredit.ua/News?page=20;https://www.icredit.ua/novyny
http://www.icredit.ua/News?page=21;https://www.icredit.ua/novyny
http://www.icredit.ua/News?page=22;https://www.icredit.ua/novyny
http://www.icredit.ua/News?page=23;https://www.icredit.ua/novyny
http://www.icredit.ua/News?page=24;https://www.icredit.ua/novyny
http://www.icredit.ua/News?page=25;https://www.icredit.ua/novyny
http://www.icredit.ua/News?page=26;https://www.icredit.ua/novyny
http://www.icredit.ua/News?page=27;https://www.icredit.ua/novyny
http://www.icredit.ua/News?page=28;https://www.icredit.ua/novyny
http://www.icredit.ua/News?page=29;https://www.icredit.ua/novyny
http://www.icredit.ua/News?page=30;https://www.icredit.ua/novyny
http://www.icredit.ua/News?page=31;https://www.icredit.ua/novyny
http://www.icredit.ua/News?page=32;https://www.icredit.ua/novyny
http://www.icredit.ua/News?page=33;https://www.icredit.ua/novyny
http://www.icredit.ua/News?page=34;https://www.icredit.ua/novyny
http://www.icredit.ua/News?page=35;https://www.icredit.ua/novyny
http://www.icredit.ua/News?page=36;https://www.icredit.ua/novyny